0.0,0.0
48.0,0.004999999888241291
309.0,0.009999999776482582
483.0,0.014999999664723873
516.0,0.019999999552965164
465.0,0.02500000037252903
426.0,0.029999999329447746
396.0,0.03500000014901161
396.0,0.03999999910593033
408.0,0.04500000178813934
411.0,0.05000000074505806
417.0,0.054999999701976776
444.0,0.05999999865889549
456.0,0.06499999761581421
471.0,0.07000000029802322
480.0,0.07500000298023224
495.0,0.07999999821186066
486.0,0.08500000089406967
495.0,0.09000000357627869
489.0,0.0949999988079071
495.0,0.10000000149011612
495.0,0.10499999672174454
513.0,0.10999999940395355
501.0,0.11500000208616257
495.0,0.11999999731779099
495.0,0.125
483.0,0.12999999523162842
465.0,0.13500000536441803
456.0,0.14000000059604645
450.0,0.14499999582767487
423.0,0.15000000596046448
414.0,0.1550000011920929
411.0,0.1599999964237213
414.0,0.16500000655651093
447.0,0.17000000178813934
465.0,0.17499999701976776
459.0,0.18000000715255737
453.0,0.1850000023841858
456.0,0.1899999976158142
477.0,0.19499999284744263
474.0,0.20000000298023224
498.0,0.20499999821186066
495.0,0.20999999344348907
498.0,0.2150000035762787
495.0,0.2199999988079071
519.0,0.22499999403953552
495.0,0.23000000417232513
504.0,0.23499999940395355
501.0,0.23999999463558197
483.0,0.24500000476837158
477.0,0.25
465.0,0.2549999952316284
456.0,0.25999999046325684
462.0,0.26499998569488525
444.0,0.27000001072883606
435.0,0.2750000059604645
426.0,0.2800000011920929
426.0,0.2849999964237213
444.0,0.28999999165534973
453.0,0.29499998688697815
465.0,0.30000001192092896
483.0,0.3050000071525574
486.0,0.3100000023841858
495.0,0.3149999976158142
486.0,0.3199999928474426
492.0,0.32499998807907104
492.0,0.33000001311302185
507.0,0.33500000834465027
516.0,0.3400000035762787
492.0,0.3449999988079071
486.0,0.3499999940395355
489.0,0.35499998927116394
471.0,0.36000001430511475
465.0,0.36500000953674316
456.0,0.3700000047683716
453.0,0.375
447.0,0.3799999952316284
450.0,0.38499999046325684
447.0,0.38999998569488525
447.0,0.39500001072883606
432.0,0.4000000059604645
429.0,0.4050000011920929
456.0,0.4099999964237213
462.0,0.41499999165534973
483.0,0.41999998688697815
501.0,0.42500001192092896
504.0,0.4300000071525574
498.0,0.4350000023841858
489.0,0.4399999976158142
501.0,0.4449999928474426
498.0,0.44999998807907104
507.0,0.45500001311302185
501.0,0.46000000834465027
492.0,0.4650000035762787
486.0,0.4699999988079071
483.0,0.4749999940395355
465.0,0.47999998927116394
453.0,0.48500001430511475
435.0,0.49000000953674316
444.0,0.4950000047683716
450.0,0.5
438.0,0.5049999952316284
432.0,0.5099999904632568
438.0,0.5149999856948853
456.0,0.5199999809265137
459.0,0.5249999761581421
474.0,0.5299999713897705
480.0,0.5350000262260437
492.0,0.5400000214576721
504.0,0.5450000166893005
492.0,0.550000011920929
513.0,0.5550000071525574
498.0,0.5600000023841858
498.0,0.5649999976158142
501.0,0.5699999928474426
495.0,0.574999988079071
489.0,0.5799999833106995
486.0,0.5849999785423279
465.0,0.5899999737739563
453.0,0.5950000286102295
450.0,0.6000000238418579
450.0,0.6050000190734863
447.0,0.6100000143051147
429.0,0.6150000095367432
426.0,0.6200000047683716
432.0,0.625
459.0,0.6299999952316284
474.0,0.6349999904632568
477.0,0.6399999856948853
489.0,0.6449999809265137
492.0,0.6499999761581421
495.0,0.6549999713897705
495.0,0.6600000262260437
510.0,0.6650000214576721
495.0,0.6700000166893005
504.0,0.675000011920929
489.0,0.6800000071525574
498.0,0.6850000023841858
492.0,0.6899999976158142
483.0,0.6949999928474426
480.0,0.699999988079071
477.0,0.7049999833106995
465.0,0.7099999785423279
447.0,0.7149999737739563
438.0,0.7200000286102295
438.0,0.7250000238418579
432.0,0.7300000190734863
426.0,0.7350000143051147
423.0,0.7400000095367432
429.0,0.7450000047683716
438.0,0.75
462.0,0.7549999952316284
486.0,0.7599999904632568
486.0,0.7649999856948853
498.0,0.7699999809265137
489.0,0.7749999761581421
504.0,0.7799999713897705
486.0,0.7850000262260437
501.0,0.7900000214576721
504.0,0.7950000166893005
486.0,0.800000011920929
498.0,0.8050000071525574
489.0,0.8100000023841858
477.0,0.8149999976158142
480.0,0.8199999928474426
462.0,0.824999988079071
429.0,0.8299999833106995
399.0,0.8349999785423279
405.0,0.8399999737739563
414.0,0.8450000286102295
429.0,0.8500000238418579
444.0,0.8550000190734863
444.0,0.8600000143051147
444.0,0.8650000095367432
462.0,0.8700000047683716
483.0,0.875
498.0,0.8799999952316284
492.0,0.8849999904632568
507.0,0.8899999856948853
507.0,0.8949999809265137
507.0,0.8999999761581421
486.0,0.9049999713897705
510.0,0.9100000262260437
507.0,0.9150000214576721
507.0,0.9200000166893005
495.0,0.925000011920929
492.0,0.9300000071525574
480.0,0.9350000023841858
471.0,0.9399999976158142
450.0,0.9449999928474426
447.0,0.949999988079071
432.0,0.9549999833106995
426.0,0.9599999785423279
414.0,0.9649999737739563
414.0,0.9700000286102295
426.0,0.9750000238418579
444.0,0.9800000190734863
468.0,0.9850000143051147
483.0,0.9900000095367432
495.0,0.9950000047683716
